%YAML 1.1
%TAG !u! tag:unity3d.com,2011:
--- !u!114 &11400000
MonoBehaviour:
  m_ObjectHideFlags: 0
  m_PrefabParentObject: {fileID: 0}
  m_PrefabInternal: {fileID: 0}
  m_GameObject: {fileID: 0}
  m_Enabled: 1
  m_EditorHideFlags: 0
  m_Script: {fileID: 11500000, guid: 6f805ca79231f8448bd27a45e656e7b0, type: 3}
  m_Name: PlayerOne
  m_EditorClassIdentifier: 
  verticalAxis: P1Vertical
  horizontalAxis: P1Horizontal
  fireInput: P1Fire
